\relax 
\bibdata{main}
\bibcite{open-source-growth}{1}
\bibcite{diversity-thought}{2}
\bibcite{bootstrap}{3}
\bibcite{scale-free-network}{4}
\bibcite{github-popularity}{5}
\bibcite{software-license}{6}
\bibcite{github-glossary-repository}{7}
\bibcite{social-network-analysis}{8}
\bibcite{mhacks-ios}{9}
\bibcite{proprietary-license}{10}
\bibcite{open-source}{11}
\bibcite{social-network-graph-theory}{12}
\bibcite{vertex-degree}{13}
\bibstyle{plain}
\@setckpt{biblio}{
\setcounter{page}{22}
\setcounter{equation}{0}
\setcounter{enumi}{0}
\setcounter{enumii}{0}
\setcounter{enumiii}{0}
\setcounter{enumiv}{13}
\setcounter{footnote}{0}
\setcounter{mpfootnote}{0}
\setcounter{part}{0}
\setcounter{chapter}{4}
\setcounter{section}{3}
\setcounter{subsection}{0}
\setcounter{subsubsection}{0}
\setcounter{paragraph}{0}
\setcounter{subparagraph}{0}
\setcounter{figure}{0}
\setcounter{table}{0}
\setcounter{savepage}{3}
\setcounter{lstnumber}{7}
\setcounter{lstlisting}{0}
}
