\relax 
\citation{social-network-analysis}
\citation{social-network-graph-theory}
\@writefile{toc}{\contentsline {chapter}{\numberline {2}Design and Methodology}{9}}
\@writefile{lof}{\addvspace {10\p@ }}
\@writefile{lot}{\addvspace {10\p@ }}
\@writefile{toc}{\contentsline {section}{\numberline {2.1}Social Network Analysis}{9}}
\@writefile{toc}{\contentsline {section}{\numberline {2.2}Github}{9}}
\citation{github-popularity}
\citation{github-glossary-repository}
\@writefile{toc}{\contentsline {section}{\numberline {2.3}Social Network Analysis Tool}{10}}
\@writefile{toc}{\contentsline {subsection}{\numberline {2.3.1}Github API}{11}}
\newlabel{go-code}{{2.1}{11}}
\@writefile{lol}{\contentsline {lstlisting}{\numberline {2.1}Query Github API in Go}{11}}
\@writefile{toc}{\contentsline {subsection}{\numberline {2.3.2}Neo4j Graph Database}{11}}
\newlabel{python-code}{{2.2}{11}}
\@writefile{lol}{\contentsline {lstlisting}{\numberline {2.2}Convert Data to Graph Format in Python}{11}}
\citation{vertex-degree}
\@writefile{toc}{\contentsline {subsection}{\numberline {2.3.3}Degree Distribution Histogram}{12}}
\@writefile{lof}{\contentsline {figure}{\numberline {2-1}{\ignorespaces Neo4j Graph Database Storing Social Network.}}{13}}
\newlabel{fig:neo4j}{{2-1}{13}}
\newlabel{cypher-code}{{2.3}{13}}
\@writefile{lol}{\contentsline {lstlisting}{\numberline {2.3}Query Degree Distribution in Cypher}{13}}
\@setckpt{chap2}{
\setcounter{page}{15}
\setcounter{equation}{0}
\setcounter{enumi}{0}
\setcounter{enumii}{0}
\setcounter{enumiii}{0}
\setcounter{enumiv}{0}
\setcounter{footnote}{0}
\setcounter{mpfootnote}{0}
\setcounter{part}{0}
\setcounter{chapter}{2}
\setcounter{section}{3}
\setcounter{subsection}{3}
\setcounter{subsubsection}{0}
\setcounter{paragraph}{0}
\setcounter{subparagraph}{0}
\setcounter{figure}{1}
\setcounter{table}{0}
\setcounter{savepage}{3}
\setcounter{lstnumber}{7}
\setcounter{lstlisting}{3}
}
