\relax 
\@writefile{toc}{\contentsline {chapter}{\numberline {4}Conclusion}{19}}
\@writefile{lof}{\addvspace {10\p@ }}
\@writefile{lot}{\addvspace {10\p@ }}
\@writefile{toc}{\contentsline {section}{\numberline {4.1}Lessons Learned}{19}}
\@writefile{toc}{\contentsline {section}{\numberline {4.2}Future Work}{20}}
\@writefile{toc}{\contentsline {section}{\numberline {4.3}Acknowledgements}{20}}
\@setckpt{chap4}{
\setcounter{page}{21}
\setcounter{equation}{0}
\setcounter{enumi}{0}
\setcounter{enumii}{0}
\setcounter{enumiii}{0}
\setcounter{enumiv}{0}
\setcounter{footnote}{0}
\setcounter{mpfootnote}{0}
\setcounter{part}{0}
\setcounter{chapter}{4}
\setcounter{section}{3}
\setcounter{subsection}{0}
\setcounter{subsubsection}{0}
\setcounter{paragraph}{0}
\setcounter{subparagraph}{0}
\setcounter{figure}{0}
\setcounter{table}{0}
\setcounter{savepage}{3}
\setcounter{lstnumber}{7}
\setcounter{lstlisting}{0}
}
