\relax 
\citation{mhacks-ios}
\citation{bootstrap}
\@writefile{toc}{\contentsline {chapter}{\numberline {3}Results and Discussion}{15}}
\@writefile{lof}{\addvspace {10\p@ }}
\@writefile{lot}{\addvspace {10\p@ }}
\@writefile{toc}{\contentsline {section}{\numberline {3.1}Github Repositories}{15}}
\@writefile{toc}{\contentsline {subsection}{\numberline {3.1.1}MHacks-iOS}{15}}
\citation{scale-free-network}
\@writefile{lof}{\contentsline {figure}{\numberline {3-1}{\ignorespaces MHacks-iOS Github Repository Degree Distribution.}}{16}}
\newlabel{fig:mhacks}{{3-1}{16}}
\@writefile{toc}{\contentsline {subsection}{\numberline {3.1.2}Bootstrap}{16}}
\@writefile{lof}{\contentsline {figure}{\numberline {3-2}{\ignorespaces Bootstrap Github Repository Degree Distribution.}}{17}}
\newlabel{fig:bootstrap}{{3-2}{17}}
\@writefile{toc}{\contentsline {section}{\numberline {3.2}Diversity of Thought in Software Engineering}{17}}
\@setckpt{chap3}{
\setcounter{page}{19}
\setcounter{equation}{0}
\setcounter{enumi}{0}
\setcounter{enumii}{0}
\setcounter{enumiii}{0}
\setcounter{enumiv}{0}
\setcounter{footnote}{0}
\setcounter{mpfootnote}{0}
\setcounter{part}{0}
\setcounter{chapter}{3}
\setcounter{section}{2}
\setcounter{subsection}{0}
\setcounter{subsubsection}{0}
\setcounter{paragraph}{0}
\setcounter{subparagraph}{0}
\setcounter{figure}{2}
\setcounter{table}{0}
\setcounter{savepage}{3}
\setcounter{lstnumber}{7}
\setcounter{lstlisting}{0}
}
