\relax 
\citation{diversity-thought}
\citation{diversity-thought}
\@writefile{toc}{\contentsline {chapter}{\numberline {1}Introduction}{7}}
\@writefile{lof}{\addvspace {10\p@ }}
\@writefile{lot}{\addvspace {10\p@ }}
\@writefile{toc}{\contentsline {section}{\numberline {1.1}Diversity of Thought}{7}}
\citation{software-license}
\citation{proprietary-license}
\citation{open-source}
\citation{open-source-growth}
\@writefile{toc}{\contentsline {section}{\numberline {1.2}Open Source Software}{8}}
\@writefile{toc}{\contentsline {section}{\numberline {1.3}Software Engineer Experts}{8}}
\@setckpt{chap1}{
\setcounter{page}{9}
\setcounter{equation}{0}
\setcounter{enumi}{0}
\setcounter{enumii}{0}
\setcounter{enumiii}{0}
\setcounter{enumiv}{0}
\setcounter{footnote}{0}
\setcounter{mpfootnote}{0}
\setcounter{part}{0}
\setcounter{chapter}{1}
\setcounter{section}{3}
\setcounter{subsection}{0}
\setcounter{subsubsection}{0}
\setcounter{paragraph}{0}
\setcounter{subparagraph}{0}
\setcounter{figure}{0}
\setcounter{table}{0}
\setcounter{savepage}{3}
\setcounter{lstnumber}{1}
\setcounter{lstlisting}{0}
}
