This is BibTeX, Version 0.99d (TeX Live 2015)
Capacity: max_strings=35307, hash_size=35307, hash_prime=30011
The top-level auxiliary file: main.aux
A level-1 auxiliary file: cover.aux
A level-1 auxiliary file: contents.aux
A level-1 auxiliary file: chap1.aux
A level-1 auxiliary file: chap2.aux
A level-1 auxiliary file: chap3.aux
A level-1 auxiliary file: chap4.aux
A level-1 auxiliary file: biblio.aux
The style file: plain.bst
Database file #1: main.bib
Warning--entry type for "diversity-thought" isn't style-file defined
--line 10 of file main.bib
Warning--entry type for "software-license" isn't style-file defined
--line 18 of file main.bib
Warning--entry type for "proprietary-license" isn't style-file defined
--line 26 of file main.bib
Warning--entry type for "open-source" isn't style-file defined
--line 34 of file main.bib
Warning--entry type for "open-source-growth" isn't style-file defined
--line 41 of file main.bib
Warning--entry type for "github-popularity" isn't style-file defined
--line 49 of file main.bib
Warning--entry type for "social-network-analysis" isn't style-file defined
--line 57 of file main.bib
Warning--entry type for "social-network-graph-theory" isn't style-file defined
--line 65 of file main.bib
Warning--entry type for "github-glossary-repository" isn't style-file defined
--line 73 of file main.bib
Warning--entry type for "vertex-degree" isn't style-file defined
--line 81 of file main.bib
Warning--entry type for "mhacks-ios" isn't style-file defined
--line 89 of file main.bib
Warning--entry type for "bootstrap" isn't style-file defined
--line 97 of file main.bib
Warning--entry type for "scale-free-network" isn't style-file defined
--line 105 of file main.bib
You've used 13 entries,
            2118 wiz_defined-function locations,
            552 strings with 5071 characters,
and the built_in function-call counts, 2583 in all, are:
= -- 220
> -- 91
< -- 0
+ -- 40
- -- 26
* -- 79
:= -- 426
add.period$ -- 26
call.type$ -- 13
change.case$ -- 52
chr.to.int$ -- 0
cite$ -- 13
duplicate$ -- 91
empty$ -- 287
format.name$ -- 26
if$ -- 559
int.to.chr$ -- 0
int.to.str$ -- 13
missing$ -- 0
newline$ -- 56
num.names$ -- 26
pop$ -- 116
preamble$ -- 2
purify$ -- 39
quote$ -- 0
skip$ -- 104
stack$ -- 0
substring$ -- 66
swap$ -- 13
text.length$ -- 0
text.prefix$ -- 0
top$ -- 0
type$ -- 52
warning$ -- 0
while$ -- 26
width$ -- 15
write$ -- 106
(There were 13 warnings)
