# Fdb version 3
["bibtex main"] 1463000488 "main.aux" "main.bbl" "main" 1463000499
  "/usr/local/texlive/2015/texmf-dist/bibtex/bst/base/plain.bst" 1292289607 20613 bd3fbfa9f64872b81ac57a0dd2ed855f ""
  "biblio.aux" 1463000499 967 fdb12a55e018805d2e7f8e28f6382036 ""
  "chap1.aux" 1463000490 1099 e233af0b80207e6a0226b7a82e4547f1 ""
  "chap2.aux" 1463000490 1921 cffd69ffdfb60ab8cd5a46853c7ea440 ""
  "chap3.aux" 1463000499 1435 43fdf71bf4c7d9babe7d46b4cc83b0b9 ""
  "chap4.aux" 1463000499 909 bf066661be66f2ab1e0a843d7efdf84f ""
  "contents.aux" 1463000490 525 73ffdc92fd026f991290147d374d3131 ""
  "cover.aux" 1463000490 522 d744c7097912213c65f256f8283c9908 ""
  "main.aux" 1463000499 145 da83c1a052075aad20995f3fabb69c9e ""
  "main.bcf" 0 -1 0 ""
  "main.bib" 1462975830 12790 2f07eeb528090743c7034eae6b19c61d ""
  (generated)
  "main.blg"
  "main.bbl"
["pdflatex"] 1463000488 "main.tex" "main.pdf" "main" 1463000499
  "./img/bootstrap_degree_distribution.png" 1462975830 381604 dd801a81fbf5c651531fff9b6115b245 ""
  "./img/mhacks-ios_degree_distribution.png" 1462975830 435735 e63d7e2f362fe382dddb48a785ad2e8d ""
  "./img/neo4j_viz.png" 1462975830 138779 c40efdf99c57e1f626ee694ffedb00ae ""
  "/usr/local/texlive/2015/texmf-dist/fonts/enc/dvips/cm-super/cm-super-t1.enc" 1136849721 2971 def0b6c1f0b107b3b936def894055589 ""
  "/usr/local/texlive/2015/texmf-dist/fonts/map/fontname/texfonts.map" 1272929888 3287 e6b82fe08f5336d4d5ebc73fb1152e87 ""
  "/usr/local/texlive/2015/texmf-dist/fonts/tfm/jknappen/ec/ecbx1200.tfm" 1136768653 3584 402da0b29eafbad07963b1224b222f18 ""
  "/usr/local/texlive/2015/texmf-dist/fonts/tfm/jknappen/ec/ecbx1440.tfm" 1136768653 3584 13049b61b922a28b158a38aeff75ee9b ""
  "/usr/local/texlive/2015/texmf-dist/fonts/tfm/jknappen/ec/ecbx1728.tfm" 1136768653 3584 ad49a18d8515beef6d92d4d3f197d0fd ""
  "/usr/local/texlive/2015/texmf-dist/fonts/tfm/jknappen/ec/ecbx2488.tfm" 1136768653 3584 0181dbc4d429c3ba4e30feba37b5df96 ""
  "/usr/local/texlive/2015/texmf-dist/fonts/tfm/jknappen/ec/ecrm1095.tfm" 1136768653 3584 929cdff2b7a8c11bd4d49fd68cb0ae70 ""
  "/usr/local/texlive/2015/texmf-dist/fonts/tfm/jknappen/ec/ecrm1200.tfm" 1136768653 3584 f80ddd985bd00e29e9a6047ebd9d4781 ""
  "/usr/local/texlive/2015/texmf-dist/fonts/tfm/jknappen/ec/ecrm1440.tfm" 1136768653 3584 3169d30142b88a27d4ab0e3468e963a2 ""
  "/usr/local/texlive/2015/texmf-dist/fonts/tfm/jknappen/ec/ecrm1728.tfm" 1136768653 3584 3c76ccb63eda935a68ba65ba9da29f1a ""
  "/usr/local/texlive/2015/texmf-dist/fonts/tfm/jknappen/ec/ecrm2488.tfm" 1136768653 3584 406ad7b70d9a41f7833f92b6313150c8 ""
  "/usr/local/texlive/2015/texmf-dist/fonts/tfm/jknappen/ec/ecti1200.tfm" 1136768653 3072 8b5a64dc91775463bc95e2d818524028 ""
  "/usr/local/texlive/2015/texmf-dist/fonts/tfm/public/cm/cmmi12.tfm" 1136768653 1524 4414a8315f39513458b80dfc63bff03a ""
  "/usr/local/texlive/2015/texmf-dist/fonts/tfm/public/cm/cmmi6.tfm" 1136768653 1512 f21f83efb36853c0b70002322c1ab3ad ""
  "/usr/local/texlive/2015/texmf-dist/fonts/tfm/public/cm/cmmi8.tfm" 1136768653 1520 eccf95517727cb11801f4f1aee3a21b4 ""
  "/usr/local/texlive/2015/texmf-dist/fonts/tfm/public/cm/cmr12.tfm" 1136768653 1288 655e228510b4c2a1abe905c368440826 ""
  "/usr/local/texlive/2015/texmf-dist/fonts/tfm/public/cm/cmr6.tfm" 1136768653 1300 b62933e007d01cfd073f79b963c01526 ""
  "/usr/local/texlive/2015/texmf-dist/fonts/tfm/public/cm/cmr8.tfm" 1136768653 1292 21c1c5bfeaebccffdb478fd231a0997d ""
  "/usr/local/texlive/2015/texmf-dist/fonts/tfm/public/cm/cmsy10.tfm" 1136768653 1124 6c73e740cf17375f03eec0ee63599741 ""
  "/usr/local/texlive/2015/texmf-dist/fonts/tfm/public/cm/cmsy6.tfm" 1136768653 1116 933a60c408fc0a863a92debe84b2d294 ""
  "/usr/local/texlive/2015/texmf-dist/fonts/tfm/public/cm/cmsy8.tfm" 1136768653 1120 8b7d695260f3cff42e636090a8002094 ""
  "/usr/local/texlive/2015/texmf-dist/fonts/type1/public/amsfonts/cm/cmsy10.pfb" 1248133631 32569 5e5ddc8df908dea60932f3c484a54c0d ""
  "/usr/local/texlive/2015/texmf-dist/fonts/type1/public/cm-super/sfbx1200.pfb" 1215737283 140176 d4962f948b4cc0adf4d3dde77a128c95 ""
  "/usr/local/texlive/2015/texmf-dist/fonts/type1/public/cm-super/sfbx1440.pfb" 1215737283 135942 859a90cad7494a1e79c94baf546d7de5 ""
  "/usr/local/texlive/2015/texmf-dist/fonts/type1/public/cm-super/sfbx1728.pfb" 1215737283 139826 9213617a7cb78635fc326b859c0b2273 ""
  "/usr/local/texlive/2015/texmf-dist/fonts/type1/public/cm-super/sfbx2488.pfb" 1215737283 135938 299ac3a69892db3b7674a8b2543b0a77 ""
  "/usr/local/texlive/2015/texmf-dist/fonts/type1/public/cm-super/sfrm1200.pfb" 1215737283 136101 f533469f523533d38317ab5729d00c8a ""
  "/usr/local/texlive/2015/texmf-dist/fonts/type1/public/cm-super/sfrm1440.pfb" 1215737283 131078 d96015a2fa5c350129e933ca070b2484 ""
  "/usr/local/texlive/2015/texmf-dist/fonts/type1/public/cm-super/sfrm1728.pfb" 1215737283 131438 3aa300b3e40e5c8ba7b4e5c6cebc5dd6 ""
  "/usr/local/texlive/2015/texmf-dist/fonts/type1/public/cm-super/sfti1200.pfb" 1215737283 198221 ca5aa71411090ef358a6cc78b7458365 ""
  "/usr/local/texlive/2015/texmf-dist/tex/context/base/supp-pdf.mkii" 1337017135 71627 94eb9990bed73c364d7f53f960cc8c5b ""
  "/usr/local/texlive/2015/texmf-dist/tex/generic/oberdiek/etexcmds.sty" 1335995445 7612 c47308d923ec19888707b0f1792b326a ""
  "/usr/local/texlive/2015/texmf-dist/tex/generic/oberdiek/ifluatex.sty" 1303254447 7324 11d14f318d865f420e692d4e6c9c18c3 ""
  "/usr/local/texlive/2015/texmf-dist/tex/generic/oberdiek/ifpdf.sty" 1303254447 7140 ece2cc23d9f20e1f53975ac167f42d3e ""
  "/usr/local/texlive/2015/texmf-dist/tex/generic/oberdiek/infwarerr.sty" 1335995445 8253 3bdedc8409aa5d290a2339be6f09af03 ""
  "/usr/local/texlive/2015/texmf-dist/tex/generic/oberdiek/kvdefinekeys.sty" 1335995445 5152 387d9200f396b498d5fd679ae44ed898 ""
  "/usr/local/texlive/2015/texmf-dist/tex/generic/oberdiek/kvsetkeys.sty" 1335995445 14040 8de9f47fabc4ca3bd69b6d795e32751c ""
  "/usr/local/texlive/2015/texmf-dist/tex/generic/oberdiek/ltxcmds.sty" 1335995445 18425 775b341047ce304520cc7c11ca41392e ""
  "/usr/local/texlive/2015/texmf-dist/tex/generic/oberdiek/pdftexcmds.sty" 1335995445 19987 01cb2f3c1d21e5f05711b7fd50b17f2a ""
  "/usr/local/texlive/2015/texmf-dist/tex/latex/base/fontenc.sty" 1428932888 4572 f29f75cfae3acaf4667f1979db655af9 ""
  "/usr/local/texlive/2015/texmf-dist/tex/latex/base/omscmr.fd" 1428932888 2256 09a793cb810c26c97ed035dcd724a0d0 ""
  "/usr/local/texlive/2015/texmf-dist/tex/latex/base/report.cls" 1428932888 23767 74c5551841f58a4efbb8c5d892190037 ""
  "/usr/local/texlive/2015/texmf-dist/tex/latex/base/size12.clo" 1428932888 9190 a2c71ff21fa1cfc03c403f5e246966b5 ""
  "/usr/local/texlive/2015/texmf-dist/tex/latex/base/t1enc.def" 1428932888 9327 bf6addf718ff386725227c5b52941e7e ""
  "/usr/local/texlive/2015/texmf-dist/tex/latex/cmap/cmap.sty" 1215522782 2883 427a7f7cb58418a0394dbd85c80668f6 ""
  "/usr/local/texlive/2015/texmf-dist/tex/latex/cmap/ot1.cmap" 1177721415 1207 4e0d96772f0d338847cbfb4eca683c81 ""
  "/usr/local/texlive/2015/texmf-dist/tex/latex/cmap/t1.cmap" 1215522782 1938 beaa4a8467aa0074076e0e19f2992e29 ""
  "/usr/local/texlive/2015/texmf-dist/tex/latex/graphics/graphics.sty" 1428932888 14285 20d80486c4ae98139889d8789596c967 ""
  "/usr/local/texlive/2015/texmf-dist/tex/latex/graphics/graphicx.sty" 1428932888 8125 557ab9f1bfa80d369fb45a914aa8a3b4 ""
  "/usr/local/texlive/2015/texmf-dist/tex/latex/graphics/keyval.sty" 1428932888 2594 d18d5e19aa8239cf867fa670c556d2e9 ""
  "/usr/local/texlive/2015/texmf-dist/tex/latex/graphics/trig.sty" 1428932888 3439 44bd4a1da7f27787173f2e99116b0a7f ""
  "/usr/local/texlive/2015/texmf-dist/tex/latex/latexconfig/epstopdf-sys.cfg" 1279039959 678 4792914a8f45be57bb98413425e4c7af ""
  "/usr/local/texlive/2015/texmf-dist/tex/latex/latexconfig/graphics.cfg" 1278958963 3563 d35e897cae3b8c6848f6677b73370b54 ""
  "/usr/local/texlive/2015/texmf-dist/tex/latex/listings/listings.cfg" 1410123741 1828 ddc16c1fe1b992198f2f6db76c7605a1 ""
  "/usr/local/texlive/2015/texmf-dist/tex/latex/listings/listings.sty" 1410123741 80361 986ecfb58a31c7520247f2b2ead09587 ""
  "/usr/local/texlive/2015/texmf-dist/tex/latex/listings/lstlang1.sty" 1410123741 93444 0138f333d6d5318ba4266bb8d4ee3643 ""
  "/usr/local/texlive/2015/texmf-dist/tex/latex/listings/lstmisc.sty" 1410123741 77029 f4782a67dce3ceeb4067191b5488d81d ""
  "/usr/local/texlive/2015/texmf-dist/tex/latex/mmap/oml.cmap" 1215649417 1866 c1c12138091b4a8edd4a24a940e6f792 ""
  "/usr/local/texlive/2015/texmf-dist/tex/latex/mmap/oms.cmap" 1215649417 2370 3b1f71b14b974f07cef532db09ae9ee0 ""
  "/usr/local/texlive/2015/texmf-dist/tex/latex/mmap/omx.cmap" 1215649417 3001 252c8ca42b06a22cb1a11c0e47790c6e ""
  "/usr/local/texlive/2015/texmf-dist/tex/latex/oberdiek/epstopdf-base.sty" 1303254447 12029 04d7fdf76e0464c23b5aa3a727952d7c ""
  "/usr/local/texlive/2015/texmf-dist/tex/latex/oberdiek/grfext.sty" 1335995445 7075 bd0c34fbf1ae8fd1debd2a554e41b2d5 ""
  "/usr/local/texlive/2015/texmf-dist/tex/latex/oberdiek/kvoptions.sty" 1335995445 22417 c74ff4af6a1aa2b65d1924020edbbe11 ""
  "/usr/local/texlive/2015/texmf-dist/tex/latex/pdftex-def/pdftex.def" 1306616590 55368 3c8a0d99822330f2dfabc0dfb09ce897 ""
  "/usr/local/texlive/2015/texmf-dist/tex/latex/setspace/setspace.sty" 1324344192 22913 a27d7908fc6f0385466454a966a316eb ""
  "/usr/local/texlive/2015/texmf-dist/web2c/texmf.cnf" 1428852030 31983 18aeec08f48baa3cf3508d538dd5f459 ""
  "/usr/local/texlive/2015/texmf-var/fonts/map/pdftex/updmap/pdftex.map" 1432479641 1764542 91654ba72bdb667e84ea24f076ae16d8 ""
  "/usr/local/texlive/2015/texmf-var/web2c/pdftex/pdflatex.fmt" 1432479681 3849859 39a7d258195bde2394e244961601fbc5 ""
  "/usr/local/texlive/2015/texmf.cnf" 1432479636 577 0d611272082f3cdb8e80e09a3c69cf07 ""
  "abstract.tex" 1462978812 969 42d972970fa8307bf9918c3802df1820 ""
  "biblio.aux" 1463000499 967 fdb12a55e018805d2e7f8e28f6382036 ""
  "biblio.tex" 1462975829 350 b8190f8e512659e030e0d64903035365 ""
  "chap1.aux" 1463000490 1099 e233af0b80207e6a0226b7a82e4547f1 ""
  "chap1.tex" 1462979304 3526 50c7485589878e0a5a02195012a8a540 ""
  "chap2.aux" 1463000490 1921 cffd69ffdfb60ab8cd5a46853c7ea440 ""
  "chap2.tex" 1462987443 7850 9bb37ea6cc0017194bdc5098e7ad05c1 ""
  "chap3.aux" 1463000499 1435 43fdf71bf4c7d9babe7d46b4cc83b0b9 ""
  "chap3.tex" 1462975830 4335 4c332cfd086d604af4a0b405d6629697 ""
  "chap4.aux" 1463000499 909 bf066661be66f2ab1e0a843d7efdf84f ""
  "chap4.tex" 1462975830 2798 29d5350f5c71c028a15df2fbcb7be129 ""
  "contents.aux" 1463000490 525 73ffdc92fd026f991290147d374d3131 ""
  "contents.tex" 1462975830 382 8178e10406129aa3c06ae53353458e61 ""
  "cover.aux" 1463000490 522 d744c7097912213c65f256f8283c9908 ""
  "cover.tex" 1462975830 5225 20153c1e0fd3515af83ef730eb4f2a40 ""
  "img/bootstrap_degree_distribution.png" 1462975830 381604 dd801a81fbf5c651531fff9b6115b245 ""
  "img/mhacks-ios_degree_distribution.png" 1462975830 435735 e63d7e2f362fe382dddb48a785ad2e8d ""
  "img/neo4j_viz.png" 1462975830 138779 c40efdf99c57e1f626ee694ffedb00ae ""
  "lgrind.sty" 1462975830 7434 ea74beead1aa2b711ec2669ba60562c3 ""
  "main.aux" 1463000499 145 da83c1a052075aad20995f3fabb69c9e ""
  "main.bbl" 1463000488 1367 c432c68efa74399cd573a223a40a8c39 "bibtex main"
  "main.tex" 1462975830 2299 39f2b5785dde2365879a362782ea2af2 ""
  "main.toc" 1463000499 1321 6b03e036e9809480abeb97ff3820ff18 ""
  "mitthesis.cls" 1462975830 19786 777b968cf8eef079513ddf22a5a30a81 ""
  (generated)
  "chap3.aux"
  "chap4.aux"
  "chap1.aux"
  "main.aux"
  "appa.aux"
  "biblio.aux"
  "contents.aux"
  "main.toc"
  "main.lof"
  "cover.aux"
  "main.lot"
  "appb.aux"
  "main.log"
  "chap2.aux"
  "main.pdf"
